{
  "code":"SUCCESS",
  "message":"查询成功",
  "data":{
    "total":2550,
    "pageSize":50,
    "pageIndex":1,
    "pageCount":59,
    "rows":[
      {
        "warehouseNo":"123123132",
        "warehouseName":"1号仓库",
        "billNo":"123123",
        "billStatus":"1",
        "createName":"张三",
        "createTime":"2018-09-09",
        "auditName":"李三",
        "auditTime":"2018-09-09",
        "amount":"200666.00",
        "goodsNumber":11,
        "employeeNo":"121212",
        "employeeName":"王三",
        "deptNo":"asasas",
        "deptName":"出库部",
        "addressNo":"asasas",
        "address":"aaaa",
        "receiverNo":"asasas",
        "receiverName":"aaaa",
        "comment":"备注"
      },
      {
        "warehouseNo":"123123132",
        "warehouseName":"1号仓库",
        "billNo":"123123",
        "billStatus":"1",
        "createName":"张三",
        "createTime":"2018-09-09",
        "auditName":"李三",
        "auditTime":"2018-09-09",
        "amount":"200666.00",
        "goodsNumber":11,
        "employeeNo":"121212",
        "purchaserName":"王三",
        "deptNo":"asasas",
        "deptName":"出库部",
        "addressNo":"asasas",
        "address":"aaaa",
        "receiverNo":"asasas",
        "receiverName":"aaaa",
        "comment":"备注"
      }
    ]
  }
}
