{
  "code":"SUCCESS",
  "message":"查询成功",
  "data":{
    "total":2550,
    "pageSize":50,
    "pageIndex":1,
    "pageCount":59,
    "rows":[
      {
        "billNo":"123123",
        "supplierName":"丢大集团",
        "createName":"张三",
        "createTime":"2017-09-09",
        "auditName":"张三",
        "auditTime":"2018-09-09",
        "billStatus":1,
        "goodsNumber":34
      },
      {
        "billNo":"123123",
        "supplierName":"丢大集团",
        "createName":"张三",
        "createTime":"2017-09-09",
        "auditName":"张三",
        "auditTime":"2018-09-09",
        "billStatus":1,
        "goodsNumber":34
      }
    ]
  }
}
