{
  "code":"SUCCESS",
  "message":"查询成功",
  "data":{
    "total":2550,
    "pageSize":50,
    "pageIndex":1,
    "pageCount":59,
    "rows":[
      {
        "id":5,
        "sourceBillNo":"123123",
        "goodsNo":"234234234",
        "goodsName":"试剂盒",
        "goodsSkuId":"342341232",
        "goodsSkuAttr":"盒（50支）",
        "price":"12.12",
        "goodsNumber":34,
        "amount":"12.22",
        "subItems":[
          {
            "id":1,
            "sourceBillEntryId":2,
            "parentItemId":3,
            "produceBatchNo":"234234234",
            "batchNo":"2342343",
            "expiryTime":"2016-09-09",
            "goodsNumber":"22",
            "price":"23.00",
            "amount":"123123.00"
          }, {
            "id":1,
            "sourceBillEntryId":2,
            "parentItemId":3,
            "produceBatchNo":"234234234",
            "batchNo":"2342343",
            "expiryTime":"2016-09-09",
            "goodsNumber":"22",
            "price":"23.00",
            "amount":"123123.00"
          }
        ]
      },
      {
        "id":6,
        "sourceBillNo":"123123",
        "goodsNo":"234234234",
        "goodsName":"试剂盒",
        "goodsSkuId":"342341232",
        "goodsSkuAttr":"盒（50支）",
        "price":"12.12",
        "goodsNumber":34,
        "amount":"12.22",
        "subItems":[
          {
            "id":1,
            "sourceBillEntryId":2,
            "parentItemId":3,
            "produceBatchNo":"234234234",
            "batchNo":"2342343",
            "expiryTime":"2016-09-09",
            "goodsNumber":"22",
            "price":"23.00",
            "amount":"123123.00"
          }, {
            "id":1,
            "sourceBillEntryId":2,
            "parentItemId":3,
            "produceBatchNo":"234234234",
            "batchNo":"2342343",
            "expiryTime":"2016-09-09",
            "goodsNumber":"22",
            "price":"23.00",
            "amount":"123123.00"
          }
        ]
      }
    ]
  }
}
