{
  "message":"SUCCESS",
  "data":{
    "total":41,
    "pageCount":3,
    "pageSize":15,
    "pageIndex":1,
    "rows":[
      {
        "skuId":"301793-2",
        "enterpriseCategoryId":0,
        "stockNum":0,
        "skuAttr":"{\"仓库\":\"1号仓库2\",\"包装\":\"盒\",\"规格\":\"20ml\",\"型号\":\"B-1\"}",
        "registerCode":"国械注进20153404103",
        "goodDeleted":0,
        "isRegisterGoods":0,
        "goodsNo":"301793",
        "produceAddrType":0,
        "articleNo":"2323",
        "skuDeleted":0,
        "disabled":0,
        "goodsName":"弓形虫抗体IgG质控液",
        "productCategoryId":0
      },
      {
        "skuId":"301793-3",
        "enterpriseCategoryId":0,
        "stockNum":0,
        "skuAttr":"{\"仓库\":\"1号仓库2\",\"包装\":\"盒\",\"规格\":\"20ml\",\"型号\":\"A-1\"}",
        "registerCode":"国械注进20153404103",
        "goodDeleted":0,
        "isRegisterGoods":0,
        "goodsNo":"301793",
        "produceAddrType":0,
        "articleNo":"2323",
        "skuDeleted":0,
        "disabled":0,
        "goodsName":"弓形虫抗体IgG质控液",
        "productCategoryId":0
      },
      {
        "skuId":"3017117-55",
        "enterpriseCategoryId":0,
        "stockNum":0,
        "skuAttr":"{\"仓库\":\"杭州仓库\",\"包装\":\"盒\",\"规格\":\"20ml\",\"型号\":\"A-1\"}",
        "registerCode":"浙食药监械(准)字2014第2400220号",
        "goodDeleted":0,
        "isRegisterGoods":0,
        "goodsNo":"3017117",
        "produceAddrType":0,
        "articleNo":"111111",
        "skuDeleted":0,
        "disabled":0,
        "goodsName":"尿素氮测定试剂盒BUN(脲酶-谷氨酸脱氢酶法)",
        "productCategoryId":0
      },
      {
        "skuId":"301799-10",
        "enterpriseCategoryId":0,
        "stockNum":0,
        "skuAttr":"{\"仓库\":\"杭州仓库\",\"包装\":\"盒\",\"规格\":\"50ml\",\"型号\":\"A-1\"}",
        "registerCode":"手动添加注册证4983",
        "goodDeleted":0,
        "isRegisterGoods":0,
        "goodsNo":"301799",
        "produceAddrType":0,
        "articleNo":"12233",
        "skuDeleted":0,
        "disabled":0,
        "goodsName":"手动添加注册证4983",
        "productCategoryId":0
      },
      {
        "skuId":"301799-11",
        "enterpriseCategoryId":0,
        "stockNum":0,
        "skuAttr":"{\"仓库\":\"北京大仓1\",\"包装\":\"盒\",\"规格\":\"50ml\",\"型号\":\"A-1\"}",
        "registerCode":"手动添加注册证4983",
        "goodDeleted":0,
        "isRegisterGoods":0,
        "goodsNo":"301799",
        "produceAddrType":0,
        "articleNo":"12233",
        "skuDeleted":0,
        "disabled":0,
        "goodsName":"手动添加注册证4983",
        "productCategoryId":0
      },
      {
        "skuId":"301799-12",
        "enterpriseCategoryId":0,
        "stockNum":0,
        "skuAttr":"{\"仓库\":\"杭州仓库\",\"包装\":\"盒\",\"规格\":\"50ml\",\"型号\":\"B-1\"}",
        "registerCode":"手动添加注册证4983",
        "goodDeleted":0,
        "isRegisterGoods":0,
        "goodsNo":"301799",
        "produceAddrType":0,
        "articleNo":"12233",
        "skuDeleted":0,
        "disabled":0,
        "goodsName":"手动添加注册证4983",
        "productCategoryId":0
      },
      {
        "skuId":"301799-18",
        "enterpriseCategoryId":0,
        "stockNum":0,
        "skuAttr":"{\"仓库\":\"北京大仓1\",\"包装\":\"盒\",\"规格\":\"50ml\",\"型号\":\"B-1\"}",
        "registerCode":"手动添加注册证4983",
        "goodDeleted":0,
        "isRegisterGoods":0,
        "goodsNo":"301799",
        "produceAddrType":0,
        "articleNo":"12233",
        "skuDeleted":0,
        "disabled":0,
        "goodsName":"手动添加注册证4983",
        "productCategoryId":0
      },
      {
        "skuId":"301796-1",
        "enterpriseCategoryId":0,
        "stockNum":0,
        "skuAttr":"{\"仓库\":\"杭州仓库\",\"包装\":\"盒\",\"规格\":\"20ml\",\"型号\":\"A-1\"}",
        "registerCode":"手动添加注册证7786",
        "goodDeleted":0,
        "isRegisterGoods":0,
        "goodsNo":"301796",
        "produceAddrType":0,
        "articleNo":"1221121212",
        "skuDeleted":0,
        "disabled":0,
        "goodsName":"手动添加注册证7786",
        "productCategoryId":0
      },
      {
        "skuId":"301796-12",
        "enterpriseCategoryId":0,
        "stockNum":0,
        "skuAttr":"{\"仓库\":\"杭州仓库\",\"包装\":\"盒\",\"规格\":\"50ml\",\"型号\":\"A-1\"}",
        "registerCode":"手动添加注册证7786",
        "goodDeleted":0,
        "isRegisterGoods":0,
        "goodsNo":"301796",
        "produceAddrType":0,
        "articleNo":"1221121212",
        "skuDeleted":0,
        "disabled":0,
        "goodsName":"手动添加注册证7786",
        "productCategoryId":0
      },
      {
        "skuId":"301796-2",
        "enterpriseCategoryId":0,
        "stockNum":0,
        "skuAttr":"{\"仓库\":\"北京大仓1\",\"包装\":\"盒\",\"规格\":\"20ml\",\"型号\":\"A-1\"}",
        "registerCode":"手动添加注册证7786",
        "goodDeleted":0,
        "isRegisterGoods":0,
        "goodsNo":"301796",
        "produceAddrType":0,
        "articleNo":"1221121212",
        "skuDeleted":0,
        "disabled":0,
        "goodsName":"手动添加注册证7786",
        "productCategoryId":0
      },
      {
        "skuId":"301796-3",
        "enterpriseCategoryId":0,
        "stockNum":0,
        "skuAttr":"{\"仓库\":\"北京大仓1\",\"包装\":\"盒\",\"规格\":\"50ml\",\"型号\":\"A-1\"}",
        "registerCode":"手动添加注册证7786",
        "goodDeleted":0,
        "isRegisterGoods":0,
        "goodsNo":"301796",
        "produceAddrType":0,
        "articleNo":"1221121212",
        "skuDeleted":0,
        "disabled":0,
        "goodsName":"手动添加注册证7786",
        "productCategoryId":0
      },
      {
        "skuId":"301796-4",
        "enterpriseCategoryId":0,
        "stockNum":0,
        "skuAttr":"{\"仓库\":\"杭州仓库\",\"包装\":\"盒\",\"规格\":\"20ml\",\"型号\":\"B-1\"}",
        "registerCode":"手动添加注册证7786",
        "goodDeleted":0,
        "isRegisterGoods":0,
        "goodsNo":"301796",
        "produceAddrType":0,
        "articleNo":"1221121212",
        "skuDeleted":0,
        "disabled":0,
        "goodsName":"手动添加注册证7786",
        "productCategoryId":0
      },
      {
        "skuId":"301796-5",
        "enterpriseCategoryId":0,
        "stockNum":0,
        "skuAttr":"{\"仓库\":\"北京大仓1\",\"包装\":\"盒\",\"规格\":\"20ml\",\"型号\":\"B-1\"}",
        "registerCode":"手动添加注册证7786",
        "goodDeleted":0,
        "isRegisterGoods":0,
        "goodsNo":"301796",
        "produceAddrType":0,
        "articleNo":"1221121212",
        "skuDeleted":0,
        "disabled":0,
        "goodsName":"手动添加注册证7786",
        "productCategoryId":0
      },
      {
        "skuId":"301796-6",
        "enterpriseCategoryId":0,
        "stockNum":0,
        "skuAttr":"{\"仓库\":\"杭州仓库\",\"包装\":\"盒\",\"规格\":\"50ml\",\"型号\":\"B-1\"}",
        "registerCode":"手动添加注册证7786",
        "goodDeleted":0,
        "isRegisterGoods":0,
        "goodsNo":"301796",
        "produceAddrType":0,
        "articleNo":"1221121212",
        "skuDeleted":0,
        "disabled":0,
        "goodsName":"手动添加注册证7786",
        "productCategoryId":0
      },
      {
        "skuId":"301796-7",
        "enterpriseCategoryId":0,
        "stockNum":0,
        "skuAttr":"{\"仓库\":\"北京大仓1\",\"包装\":\"盒\",\"规格\":\"50ml\",\"型号\":\"B-1\"}",
        "registerCode":"手动添加注册证7786",
        "goodDeleted":0,
        "isRegisterGoods":0,
        "goodsNo":"301796",
        "produceAddrType":0,
        "articleNo":"1221121212",
        "skuDeleted":0,
        "disabled":0,
        "goodsName":"手动添加注册证7786",
        "productCategoryId":0
      }
    ]
  },
  "code":"SUCCESS"
}