{
  "code":"SUCCESS",
  "message":"查询成功",
  "data":{
    "pageIndex":1,
    "pageSize":10,
    "pageCount":3,
    "total":21,
    "rows":[
      {
        "warehouseNo":"111",
        "warehouseName":"1号仓库",
        "warehouseTypeName":"自有库",
        "linkMan":"路人甲",
        "linkTelephone":"15028378767",
        "provinceName":"浙江省",
        "cityName":"杭州市",
        "districtName":"西湖区",
        "address":"三墩镇石祥路200号"
      },
      {
        "warehouseNo":"333",
        "warehouseName":"二号仓库",
        "warehouseTypeName":"自有库",
        "linkMan":"路人甲",
        "linkTelephone":"15028378767",
        "provinceName":"浙江省",
        "cityName":"杭州市",
        "districtName":"西湖区",
        "address":"三墩镇石祥路200号"
      }
    ]
  }
}